2021-10-28 16:57:53.3290 Info Message Template Auto Format enabled
2021-10-28 16:57:53.3712 Info Loading assembly: NLog.Web.AspNetCore
2021-10-28 16:57:53.4306 Info Adding target FileTarget(Name=alldata)
2021-10-28 16:57:53.4780 Info Validating config: TargetNames=alldata, ConfigItems=16, FilePath=C:\_dev\BlackHills\bin\Debug\netcoreapp3.1\NLog.config
2021-10-28 16:57:53.5068 Info Configuration initialized.
2021-10-28 16:57:53.5068 Info NLog, Version=4.0.0.0, Culture=neutral, PublicKeyToken=5120e14c03d0593c. File version: 4.7.11.13229. Product version: 4.7.11+33ed3a9f86277651e93ddf39cda64a046a06778b. GlobalAssemblyCache: False
2021-10-28 16:59:11.5001 Info Message Template Auto Format enabled
2021-10-28 16:59:11.5440 Info Loading assembly: NLog.Web.AspNetCore
2021-10-28 16:59:11.6105 Info Adding target FileTarget(Name=alldata)
2021-10-28 16:59:11.6574 Info Validating config: TargetNames=alldata, ConfigItems=16, FilePath=C:\_dev\BlackHills\bin\Debug\netcoreapp3.1\NLog.config
2021-10-28 16:59:11.6920 Info Configuration initialized.
2021-10-28 16:59:11.6920 Info NLog, Version=4.0.0.0, Culture=neutral, PublicKeyToken=5120e14c03d0593c. File version: 4.7.11.13229. Product version: 4.7.11+33ed3a9f86277651e93ddf39cda64a046a06778b. GlobalAssemblyCache: False
2021-10-28 23:12:25.4657 Info Message Template Auto Format enabled
2021-10-28 23:12:25.4958 Info Loading assembly: NLog.Web.AspNetCore
2021-10-28 23:12:25.5325 Info Adding target FileTarget(Name=alldata)
2021-10-28 23:12:25.5598 Info Validating config: TargetNames=alldata, ConfigItems=16, FilePath=C:\_dev\BlackHills\bin\Debug\netcoreapp3.1\NLog.config
2021-10-28 23:12:25.5757 Info Configuration initialized.
2021-10-28 23:12:25.5757 Info NLog, Version=4.0.0.0, Culture=neutral, PublicKeyToken=5120e14c03d0593c. File version: 4.7.11.13229. Product version: 4.7.11+33ed3a9f86277651e93ddf39cda64a046a06778b. GlobalAssemblyCache: False
2021-10-28 23:15:59.1498 Info Message Template Auto Format enabled
2021-10-28 23:15:59.1707 Info Loading assembly: NLog.Web.AspNetCore
2021-10-28 23:15:59.1981 Info Adding target FileTarget(Name=alldata)
2021-10-28 23:15:59.2228 Info Validating config: TargetNames=alldata, ConfigItems=16, FilePath=C:\_dev\BlackHills\bin\Debug\netcoreapp3.1\NLog.config
2021-10-28 23:15:59.2388 Info Configuration initialized.
2021-10-28 23:15:59.2388 Info NLog, Version=4.0.0.0, Culture=neutral, PublicKeyToken=5120e14c03d0593c. File version: 4.7.11.13229. Product version: 4.7.11+33ed3a9f86277651e93ddf39cda64a046a06778b. GlobalAssemblyCache: False
2021-10-28 23:25:04.5678 Info Message Template Auto Format enabled
2021-10-28 23:25:04.5989 Info Loading assembly: NLog.Web.AspNetCore
2021-10-28 23:25:04.6500 Info Adding target FileTarget(Name=alldata)
2021-10-28 23:25:04.6872 Info Validating config: TargetNames=alldata, ConfigItems=16, FilePath=C:\_dev\BlackHills\bin\Debug\netcoreapp3.1\NLog.config
2021-10-28 23:25:04.7094 Info Configuration initialized.
2021-10-28 23:25:04.7108 Info NLog, Version=4.0.0.0, Culture=neutral, PublicKeyToken=5120e14c03d0593c. File version: 4.7.11.13229. Product version: 4.7.11+33ed3a9f86277651e93ddf39cda64a046a06778b. GlobalAssemblyCache: False
2021-10-29 10:53:58.5432 Info Message Template Auto Format enabled
2021-10-29 10:53:58.5711 Info Loading assembly: NLog.Web.AspNetCore
2021-10-29 10:53:58.5939 Info Adding target FileTarget(Name=alldata)
2021-10-29 10:53:58.6115 Info Validating config: TargetNames=alldata, ConfigItems=16, FilePath=C:\_dev\BlackHills\bin\Debug\netcoreapp3.1\NLog.config
2021-10-29 10:53:58.6236 Info Configuration initialized.
2021-10-29 10:53:58.6236 Info NLog, Version=4.0.0.0, Culture=neutral, PublicKeyToken=5120e14c03d0593c. File version: 4.7.11.13229. Product version: 4.7.11+33ed3a9f86277651e93ddf39cda64a046a06778b. GlobalAssemblyCache: False
2021-10-29 10:57:26.5365 Info Message Template Auto Format enabled
2021-10-29 10:57:26.5570 Info Loading assembly: NLog.Web.AspNetCore
2021-10-29 10:57:26.5833 Info Adding target FileTarget(Name=alldata)
2021-10-29 10:57:26.6059 Info Validating config: TargetNames=alldata, ConfigItems=16, FilePath=C:\_dev\BlackHills\bin\Debug\netcoreapp3.1\NLog.config
2021-10-29 10:57:26.6207 Info Configuration initialized.
2021-10-29 10:57:26.6207 Info NLog, Version=4.0.0.0, Culture=neutral, PublicKeyToken=5120e14c03d0593c. File version: 4.7.11.13229. Product version: 4.7.11+33ed3a9f86277651e93ddf39cda64a046a06778b. GlobalAssemblyCache: False
2021-10-29 12:03:44.1814 Info Message Template Auto Format enabled
2021-10-29 12:03:44.1995 Info Loading assembly: NLog.Web.AspNetCore
2021-10-29 12:03:44.2290 Info Adding target FileTarget(Name=alldata)
2021-10-29 12:03:44.2586 Info Validating config: TargetNames=alldata, ConfigItems=16, FilePath=C:\_dev\BlackHills\bin\Debug\netcoreapp3.1\NLog.config
2021-10-29 12:03:44.2762 Info Configuration initialized.
2021-10-29 12:03:44.2762 Info NLog, Version=4.0.0.0, Culture=neutral, PublicKeyToken=5120e14c03d0593c. File version: 4.7.11.13229. Product version: 4.7.11+33ed3a9f86277651e93ddf39cda64a046a06778b. GlobalAssemblyCache: False
2021-10-29 12:04:46.6595 Info Message Template Auto Format enabled
2021-10-29 12:04:46.6795 Info Loading assembly: NLog.Web.AspNetCore
2021-10-29 12:04:46.7095 Info Adding target FileTarget(Name=alldata)
2021-10-29 12:04:46.7316 Info Validating config: TargetNames=alldata, ConfigItems=16, FilePath=C:\_dev\BlackHills\bin\Debug\netcoreapp3.1\NLog.config
2021-10-29 12:04:46.7456 Info Configuration initialized.
2021-10-29 12:04:46.7456 Info NLog, Version=4.0.0.0, Culture=neutral, PublicKeyToken=5120e14c03d0593c. File version: 4.7.11.13229. Product version: 4.7.11+33ed3a9f86277651e93ddf39cda64a046a06778b. GlobalAssemblyCache: False
2021-11-01 18:02:23.0308 Info Message Template Auto Format enabled
2021-11-01 18:02:23.0483 Info Loading assembly: NLog.Web.AspNetCore
2021-11-01 18:02:23.0723 Info Adding target FileTarget(Name=alldata)
2021-11-01 18:02:23.1095 Info Validating config: TargetNames=alldata, ConfigItems=16, FilePath=C:\_dev\BlackHills\bin\Debug\netcoreapp3.1\NLog.config
2021-11-01 18:02:23.1309 Info Configuration initialized.
2021-11-01 18:02:23.1309 Info NLog, Version=4.0.0.0, Culture=neutral, PublicKeyToken=5120e14c03d0593c. File version: 4.7.11.13229. Product version: 4.7.11+33ed3a9f86277651e93ddf39cda64a046a06778b. GlobalAssemblyCache: False
2021-11-01 18:57:44.5402 Info Message Template Auto Format enabled
2021-11-01 18:57:44.5897 Info Loading assembly: NLog.Web.AspNetCore
2021-11-01 18:57:44.6548 Info Adding target FileTarget(Name=alldata)
2021-11-01 18:57:44.7088 Info Validating config: TargetNames=alldata, ConfigItems=16, FilePath=C:\_dev\BlackHills\bin\Debug\netcoreapp3.1\NLog.config
2021-11-01 18:57:44.7432 Info Configuration initialized.
2021-11-01 18:57:44.7432 Info NLog, Version=4.0.0.0, Culture=neutral, PublicKeyToken=5120e14c03d0593c. File version: 4.7.11.13229. Product version: 4.7.11+33ed3a9f86277651e93ddf39cda64a046a06778b. GlobalAssemblyCache: False
2021-11-01 21:00:40.9753 Info Message Template Auto Format enabled
2021-11-01 21:00:40.9949 Info Loading assembly: NLog.Web.AspNetCore
2021-11-01 21:00:41.0301 Info Adding target FileTarget(Name=alldata)
2021-11-01 21:00:41.0549 Info Validating config: TargetNames=alldata, ConfigItems=16, FilePath=C:\_dev\BlackHills\bin\Debug\netcoreapp3.1\NLog.config
2021-11-01 21:00:41.0694 Info Configuration initialized.
2021-11-01 21:00:41.0694 Info NLog, Version=4.0.0.0, Culture=neutral, PublicKeyToken=5120e14c03d0593c. File version: 4.7.11.13229. Product version: 4.7.11+33ed3a9f86277651e93ddf39cda64a046a06778b. GlobalAssemblyCache: False
2021-11-01 21:01:03.3356 Info Message Template Auto Format enabled
2021-11-01 21:01:03.3692 Info Loading assembly: NLog.Web.AspNetCore
2021-11-01 21:01:03.4115 Info Adding target FileTarget(Name=alldata)
2021-11-01 21:01:03.4437 Info Validating config: TargetNames=alldata, ConfigItems=16, FilePath=C:\_dev\BlackHills\bin\Debug\netcoreapp3.1\NLog.config
2021-11-01 21:01:03.4625 Info Configuration initialized.
2021-11-01 21:01:03.4625 Info NLog, Version=4.0.0.0, Culture=neutral, PublicKeyToken=5120e14c03d0593c. File version: 4.7.11.13229. Product version: 4.7.11+33ed3a9f86277651e93ddf39cda64a046a06778b. GlobalAssemblyCache: False
2021-11-01 21:02:47.9426 Info Message Template Auto Format enabled
2021-11-01 21:02:47.9604 Info Loading assembly: NLog.Web.AspNetCore
2021-11-01 21:02:47.9894 Info Adding target FileTarget(Name=alldata)
2021-11-01 21:02:48.0137 Info Validating config: TargetNames=alldata, ConfigItems=16, FilePath=C:\_dev\BlackHills\bin\Debug\netcoreapp3.1\NLog.config
2021-11-01 21:02:48.0288 Info Configuration initialized.
2021-11-01 21:02:48.0288 Info NLog, Version=4.0.0.0, Culture=neutral, PublicKeyToken=5120e14c03d0593c. File version: 4.7.11.13229. Product version: 4.7.11+33ed3a9f86277651e93ddf39cda64a046a06778b. GlobalAssemblyCache: False
2021-11-01 21:04:18.8474 Info Message Template Auto Format enabled
2021-11-01 21:04:18.8643 Info Loading assembly: NLog.Web.AspNetCore
2021-11-01 21:04:18.8891 Info Adding target FileTarget(Name=alldata)
2021-11-01 21:04:18.9103 Info Validating config: TargetNames=alldata, ConfigItems=16, FilePath=C:\_dev\BlackHills\bin\Debug\netcoreapp3.1\NLog.config
2021-11-01 21:04:18.9255 Info Configuration initialized.
2021-11-01 21:04:18.9255 Info NLog, Version=4.0.0.0, Culture=neutral, PublicKeyToken=5120e14c03d0593c. File version: 4.7.11.13229. Product version: 4.7.11+33ed3a9f86277651e93ddf39cda64a046a06778b. GlobalAssemblyCache: False
2021-11-01 21:21:05.9936 Info Message Template Auto Format enabled
2021-11-01 21:21:06.0124 Info Loading assembly: NLog.Web.AspNetCore
2021-11-01 21:21:06.0401 Info Adding target FileTarget(Name=alldata)
2021-11-01 21:21:06.0669 Info Validating config: TargetNames=alldata, ConfigItems=17, FilePath=C:\_dev\BlackHills\bin\Debug\netcoreapp3.1\NLog.config
2021-11-01 21:21:06.0809 Info Configuration initialized.
2021-11-01 21:21:06.0809 Info NLog, Version=4.0.0.0, Culture=neutral, PublicKeyToken=5120e14c03d0593c. File version: 4.7.11.13229. Product version: 4.7.11+33ed3a9f86277651e93ddf39cda64a046a06778b. GlobalAssemblyCache: False
2021-11-01 21:23:34.7213 Info Message Template Auto Format enabled
2021-11-01 21:23:34.7390 Info Loading assembly: NLog.Web.AspNetCore
2021-11-01 21:23:34.7633 Info Adding target FileTarget(Name=alldata)
2021-11-01 21:23:34.7917 Info Validating config: TargetNames=alldata, ConfigItems=16, FilePath=C:\_dev\BlackHills\bin\Debug\netcoreapp3.1\NLog.config
2021-11-01 21:23:34.8068 Info Configuration initialized.
2021-11-01 21:23:34.8068 Info NLog, Version=4.0.0.0, Culture=neutral, PublicKeyToken=5120e14c03d0593c. File version: 4.7.11.13229. Product version: 4.7.11+33ed3a9f86277651e93ddf39cda64a046a06778b. GlobalAssemblyCache: False
2021-11-01 23:41:39.7708 Info Message Template Auto Format enabled
2021-11-01 23:41:39.7890 Info Loading assembly: NLog.Web.AspNetCore
2021-11-01 23:41:39.8222 Info Adding target FileTarget(Name=alldata)
2021-11-01 23:41:39.8485 Info Validating config: TargetNames=alldata, ConfigItems=16, FilePath=C:\_dev\BlackHills\bin\Debug\netcoreapp3.1\NLog.config
2021-11-01 23:41:39.8611 Info Configuration initialized.
2021-11-01 23:41:39.8611 Info NLog, Version=4.0.0.0, Culture=neutral, PublicKeyToken=5120e14c03d0593c. File version: 4.7.11.13229. Product version: 4.7.11+33ed3a9f86277651e93ddf39cda64a046a06778b. GlobalAssemblyCache: False
2021-11-02 13:13:58.6840 Info Message Template Auto Format enabled
2021-11-02 13:13:58.7039 Info Loading assembly: NLog.Web.AspNetCore
2021-11-02 13:13:58.7459 Info Adding target FileTarget(Name=alldata)
2021-11-02 13:13:58.7791 Info Validating config: TargetNames=alldata, ConfigItems=16, FilePath=C:\_dev\BlackHills\bin\Debug\netcoreapp3.1\NLog.config
2021-11-02 13:13:58.7978 Info Configuration initialized.
2021-11-02 13:13:58.7978 Info NLog, Version=4.0.0.0, Culture=neutral, PublicKeyToken=5120e14c03d0593c. File version: 4.7.11.13229. Product version: 4.7.11+33ed3a9f86277651e93ddf39cda64a046a06778b. GlobalAssemblyCache: False
2021-11-02 13:14:57.5648 Info Message Template Auto Format enabled
2021-11-02 13:14:57.5845 Info Loading assembly: NLog.Web.AspNetCore
2021-11-02 13:14:57.6210 Info Adding target FileTarget(Name=alldata)
2021-11-02 13:14:57.6487 Info Validating config: TargetNames=alldata, ConfigItems=16, FilePath=C:\_dev\BlackHills\bin\Debug\netcoreapp3.1\NLog.config
2021-11-02 13:14:57.6678 Info Configuration initialized.
2021-11-02 13:14:57.6678 Info NLog, Version=4.0.0.0, Culture=neutral, PublicKeyToken=5120e14c03d0593c. File version: 4.7.11.13229. Product version: 4.7.11+33ed3a9f86277651e93ddf39cda64a046a06778b. GlobalAssemblyCache: False
2021-11-02 13:17:25.6101 Info Message Template Auto Format enabled
2021-11-02 13:17:25.6262 Info Loading assembly: NLog.Web.AspNetCore
2021-11-02 13:17:25.6538 Info Adding target FileTarget(Name=alldata)
2021-11-02 13:17:25.6788 Info Validating config: TargetNames=alldata, ConfigItems=16, FilePath=C:\_dev\BlackHills\bin\Debug\netcoreapp3.1\NLog.config
2021-11-02 13:17:25.6938 Info Configuration initialized.
2021-11-02 13:17:25.6938 Info NLog, Version=4.0.0.0, Culture=neutral, PublicKeyToken=5120e14c03d0593c. File version: 4.7.11.13229. Product version: 4.7.11+33ed3a9f86277651e93ddf39cda64a046a06778b. GlobalAssemblyCache: False
2021-11-02 13:20:57.3963 Info Message Template Auto Format enabled
2021-11-02 13:20:57.4141 Info Loading assembly: NLog.Web.AspNetCore
2021-11-02 13:20:57.4396 Info Adding target FileTarget(Name=alldata)
2021-11-02 13:20:57.4600 Info Validating config: TargetNames=alldata, ConfigItems=16, FilePath=C:\_dev\BlackHills\bin\Debug\netcoreapp3.1\NLog.config
2021-11-02 13:20:57.4712 Info Configuration initialized.
2021-11-02 13:20:57.4712 Info NLog, Version=4.0.0.0, Culture=neutral, PublicKeyToken=5120e14c03d0593c. File version: 4.7.11.13229. Product version: 4.7.11+33ed3a9f86277651e93ddf39cda64a046a06778b. GlobalAssemblyCache: False
2021-11-02 13:23:28.3446 Info Message Template Auto Format enabled
2021-11-02 13:23:28.3755 Info Loading assembly: NLog.Web.AspNetCore
2021-11-02 13:23:28.4109 Info Adding target FileTarget(Name=alldata)
2021-11-02 13:23:28.4381 Info Validating config: TargetNames=alldata, ConfigItems=16, FilePath=C:\_dev\BlackHills\bin\Debug\netcoreapp3.1\NLog.config
2021-11-02 13:23:28.4540 Info Configuration initialized.
2021-11-02 13:23:28.4540 Info NLog, Version=4.0.0.0, Culture=neutral, PublicKeyToken=5120e14c03d0593c. File version: 4.7.11.13229. Product version: 4.7.11+33ed3a9f86277651e93ddf39cda64a046a06778b. GlobalAssemblyCache: False
2021-11-02 13:26:58.8123 Info Message Template Auto Format enabled
2021-11-02 13:26:58.8295 Info Loading assembly: NLog.Web.AspNetCore
2021-11-02 13:26:58.8605 Info Adding target FileTarget(Name=alldata)
2021-11-02 13:26:58.8945 Info Validating config: TargetNames=alldata, ConfigItems=16, FilePath=C:\_dev\BlackHills\bin\Debug\netcoreapp3.1\NLog.config
2021-11-02 13:26:58.9070 Info Configuration initialized.
2021-11-02 13:26:58.9070 Info NLog, Version=4.0.0.0, Culture=neutral, PublicKeyToken=5120e14c03d0593c. File version: 4.7.11.13229. Product version: 4.7.11+33ed3a9f86277651e93ddf39cda64a046a06778b. GlobalAssemblyCache: False
2021-11-02 13:28:34.7824 Info Message Template Auto Format enabled
2021-11-02 13:28:34.8077 Info Loading assembly: NLog.Web.AspNetCore
2021-11-02 13:28:34.8578 Info Adding target FileTarget(Name=alldata)
2021-11-02 13:28:34.8890 Info Validating config: TargetNames=alldata, ConfigItems=16, FilePath=C:\_dev\BlackHills\bin\Debug\netcoreapp3.1\NLog.config
2021-11-02 13:28:34.9051 Info Configuration initialized.
2021-11-02 13:28:34.9051 Info NLog, Version=4.0.0.0, Culture=neutral, PublicKeyToken=5120e14c03d0593c. File version: 4.7.11.13229. Product version: 4.7.11+33ed3a9f86277651e93ddf39cda64a046a06778b. GlobalAssemblyCache: False
2021-11-02 13:30:47.3690 Info Message Template Auto Format enabled
2021-11-02 13:30:47.3836 Info Loading assembly: NLog.Web.AspNetCore
2021-11-02 13:30:47.4103 Info Adding target FileTarget(Name=alldata)
2021-11-02 13:30:47.4390 Info Validating config: TargetNames=alldata, ConfigItems=16, FilePath=C:\_dev\BlackHills\bin\Debug\netcoreapp3.1\NLog.config
2021-11-02 13:30:47.4557 Info Configuration initialized.
2021-11-02 13:30:47.4557 Info NLog, Version=4.0.0.0, Culture=neutral, PublicKeyToken=5120e14c03d0593c. File version: 4.7.11.13229. Product version: 4.7.11+33ed3a9f86277651e93ddf39cda64a046a06778b. GlobalAssemblyCache: False
2021-11-02 13:32:10.3209 Info Message Template Auto Format enabled
2021-11-02 13:32:10.3486 Info Loading assembly: NLog.Web.AspNetCore
2021-11-02 13:32:10.3890 Info Adding target FileTarget(Name=alldata)
2021-11-02 13:32:10.4280 Info Validating config: TargetNames=alldata, ConfigItems=16, FilePath=C:\_dev\BlackHills\bin\Debug\netcoreapp3.1\NLog.config
2021-11-02 13:32:10.4471 Info Configuration initialized.
2021-11-02 13:32:10.4471 Info NLog, Version=4.0.0.0, Culture=neutral, PublicKeyToken=5120e14c03d0593c. File version: 4.7.11.13229. Product version: 4.7.11+33ed3a9f86277651e93ddf39cda64a046a06778b. GlobalAssemblyCache: False
2021-11-02 13:40:57.8563 Info Message Template Auto Format enabled
2021-11-02 13:40:57.8894 Info Loading assembly: NLog.Web.AspNetCore
2021-11-02 13:40:57.9148 Info Adding target FileTarget(Name=alldata)
2021-11-02 13:40:57.9343 Info Validating config: TargetNames=alldata, ConfigItems=16, FilePath=C:\_dev\BlackHills\bin\Debug\netcoreapp3.1\NLog.config
2021-11-02 13:40:57.9447 Info Configuration initialized.
2021-11-02 13:40:57.9447 Info NLog, Version=4.0.0.0, Culture=neutral, PublicKeyToken=5120e14c03d0593c. File version: 4.7.11.13229. Product version: 4.7.11+33ed3a9f86277651e93ddf39cda64a046a06778b. GlobalAssemblyCache: False
2021-11-02 14:58:32.4849 Info Message Template Auto Format enabled
2021-11-02 14:58:32.5018 Info Loading assembly: NLog.Web.AspNetCore
2021-11-02 14:58:32.5280 Info Adding target FileTarget(Name=alldata)
2021-11-02 14:58:32.5604 Info Validating config: TargetNames=alldata, ConfigItems=16, FilePath=C:\_dev\BlackHills\bin\Debug\netcoreapp3.1\NLog.config
2021-11-02 14:58:32.5745 Info Configuration initialized.
2021-11-02 14:58:32.5745 Info NLog, Version=4.0.0.0, Culture=neutral, PublicKeyToken=5120e14c03d0593c. File version: 4.7.11.13229. Product version: 4.7.11+33ed3a9f86277651e93ddf39cda64a046a06778b. GlobalAssemblyCache: False
2021-11-02 15:01:07.1427 Info Message Template Auto Format enabled
2021-11-02 15:01:07.1569 Info Loading assembly: NLog.Web.AspNetCore
2021-11-02 15:01:07.1838 Info Adding target FileTarget(Name=alldata)
2021-11-02 15:01:07.2076 Info Validating config: TargetNames=alldata, ConfigItems=16, FilePath=C:\_dev\BlackHills\bin\Debug\netcoreapp3.1\NLog.config
2021-11-02 15:01:07.2201 Info Configuration initialized.
2021-11-02 15:01:07.2201 Info NLog, Version=4.0.0.0, Culture=neutral, PublicKeyToken=5120e14c03d0593c. File version: 4.7.11.13229. Product version: 4.7.11+33ed3a9f86277651e93ddf39cda64a046a06778b. GlobalAssemblyCache: False
2021-11-02 16:39:16.8547 Info Message Template Auto Format enabled
2021-11-02 16:39:16.8736 Info Loading assembly: NLog.Web.AspNetCore
2021-11-02 16:39:16.9068 Info Adding target FileTarget(Name=alldata)
2021-11-02 16:39:16.9293 Info Validating config: TargetNames=alldata, ConfigItems=16, FilePath=C:\_dev\BlackHills\bin\Debug\netcoreapp3.1\NLog.config
2021-11-02 16:39:16.9453 Info Configuration initialized.
2021-11-02 16:39:16.9700 Info NLog, Version=4.0.0.0, Culture=neutral, PublicKeyToken=5120e14c03d0593c. File version: 4.7.11.13229. Product version: 4.7.11+33ed3a9f86277651e93ddf39cda64a046a06778b. GlobalAssemblyCache: False
2021-11-02 23:13:59.7781 Info Message Template Auto Format enabled
2021-11-02 23:13:59.7948 Info Loading assembly: NLog.Web.AspNetCore
2021-11-02 23:13:59.8201 Info Adding target FileTarget(Name=alldata)
2021-11-02 23:13:59.8403 Info Validating config: TargetNames=alldata, ConfigItems=16, FilePath=C:\_dev\BlackHills\bin\Debug\netcoreapp3.1\NLog.config
2021-11-02 23:13:59.8527 Info Configuration initialized.
2021-11-02 23:13:59.8527 Info NLog, Version=4.0.0.0, Culture=neutral, PublicKeyToken=5120e14c03d0593c. File version: 4.7.11.13229. Product version: 4.7.11+33ed3a9f86277651e93ddf39cda64a046a06778b. GlobalAssemblyCache: False
2021-11-02 23:16:14.5085 Info Message Template Auto Format enabled
2021-11-02 23:16:14.5287 Info Loading assembly: NLog.Web.AspNetCore
2021-11-02 23:16:14.5593 Info Adding target FileTarget(Name=alldata)
2021-11-02 23:16:14.5863 Info Validating config: TargetNames=alldata, ConfigItems=16, FilePath=C:\_dev\BlackHills\bin\Debug\netcoreapp3.1\NLog.config
2021-11-02 23:16:14.5996 Info Configuration initialized.
2021-11-02 23:16:14.5996 Info NLog, Version=4.0.0.0, Culture=neutral, PublicKeyToken=5120e14c03d0593c. File version: 4.7.11.13229. Product version: 4.7.11+33ed3a9f86277651e93ddf39cda64a046a06778b. GlobalAssemblyCache: False
2021-11-02 23:17:39.2245 Info Message Template Auto Format enabled
2021-11-02 23:17:39.2480 Info Loading assembly: NLog.Web.AspNetCore
2021-11-02 23:17:39.2796 Info Adding target FileTarget(Name=alldata)
2021-11-02 23:17:39.3051 Info Validating config: TargetNames=alldata, ConfigItems=16, FilePath=C:\_dev\BlackHills\bin\Debug\netcoreapp3.1\NLog.config
2021-11-02 23:17:39.3182 Info Configuration initialized.
2021-11-02 23:17:39.3182 Info NLog, Version=4.0.0.0, Culture=neutral, PublicKeyToken=5120e14c03d0593c. File version: 4.7.11.13229. Product version: 4.7.11+33ed3a9f86277651e93ddf39cda64a046a06778b. GlobalAssemblyCache: False
2021-11-02 23:20:19.8445 Info Message Template Auto Format enabled
2021-11-02 23:20:19.8597 Info Loading assembly: NLog.Web.AspNetCore
2021-11-02 23:20:19.8835 Info Adding target FileTarget(Name=alldata)
2021-11-02 23:20:19.9053 Info Validating config: TargetNames=alldata, ConfigItems=16, FilePath=C:\_dev\BlackHills\bin\Debug\netcoreapp3.1\NLog.config
2021-11-02 23:20:19.9185 Info Configuration initialized.
2021-11-02 23:20:19.9185 Info NLog, Version=4.0.0.0, Culture=neutral, PublicKeyToken=5120e14c03d0593c. File version: 4.7.11.13229. Product version: 4.7.11+33ed3a9f86277651e93ddf39cda64a046a06778b. GlobalAssemblyCache: False
2021-11-02 23:30:52.4086 Info Message Template Auto Format enabled
2021-11-02 23:30:52.4273 Info Loading assembly: NLog.Web.AspNetCore
2021-11-02 23:30:52.4538 Info Adding target FileTarget(Name=alldata)
2021-11-02 23:30:52.4811 Info Validating config: TargetNames=alldata, ConfigItems=16, FilePath=C:\_dev\BlackHills\bin\Debug\netcoreapp3.1\NLog.config
2021-11-02 23:30:52.4997 Info Configuration initialized.
2021-11-02 23:30:52.4997 Info NLog, Version=4.0.0.0, Culture=neutral, PublicKeyToken=5120e14c03d0593c. File version: 4.7.11.13229. Product version: 4.7.11+33ed3a9f86277651e93ddf39cda64a046a06778b. GlobalAssemblyCache: False
2021-11-02 23:34:23.0972 Info Message Template Auto Format enabled
2021-11-02 23:34:23.1164 Info Loading assembly: NLog.Web.AspNetCore
2021-11-02 23:34:23.1476 Info Adding target FileTarget(Name=alldata)
2021-11-02 23:34:23.1747 Info Validating config: TargetNames=alldata, ConfigItems=16, FilePath=C:\_dev\BlackHills\bin\Debug\netcoreapp3.1\NLog.config
2021-11-02 23:34:23.1892 Info Configuration initialized.
2021-11-02 23:34:23.1892 Info NLog, Version=4.0.0.0, Culture=neutral, PublicKeyToken=5120e14c03d0593c. File version: 4.7.11.13229. Product version: 4.7.11+33ed3a9f86277651e93ddf39cda64a046a06778b. GlobalAssemblyCache: False
2021-11-02 23:38:28.5461 Info Message Template Auto Format enabled
2021-11-02 23:38:28.5685 Info Loading assembly: NLog.Web.AspNetCore
2021-11-02 23:38:28.6001 Info Adding target FileTarget(Name=alldata)
2021-11-02 23:38:28.6280 Info Validating config: TargetNames=alldata, ConfigItems=16, FilePath=C:\_dev\BlackHills\bin\Debug\netcoreapp3.1\NLog.config
2021-11-02 23:38:28.6280 Info Configuration initialized.
2021-11-02 23:38:28.6280 Info NLog, Version=4.0.0.0, Culture=neutral, PublicKeyToken=5120e14c03d0593c. File version: 4.7.11.13229. Product version: 4.7.11+33ed3a9f86277651e93ddf39cda64a046a06778b. GlobalAssemblyCache: False
2021-11-02 23:40:17.1819 Info Message Template Auto Format enabled
2021-11-02 23:40:17.2037 Info Loading assembly: NLog.Web.AspNetCore
2021-11-02 23:40:17.2415 Info Adding target FileTarget(Name=alldata)
2021-11-02 23:40:17.2656 Info Validating config: TargetNames=alldata, ConfigItems=16, FilePath=C:\_dev\BlackHills\bin\Debug\netcoreapp3.1\NLog.config
2021-11-02 23:40:17.2810 Info Configuration initialized.
2021-11-02 23:40:17.2810 Info NLog, Version=4.0.0.0, Culture=neutral, PublicKeyToken=5120e14c03d0593c. File version: 4.7.11.13229. Product version: 4.7.11+33ed3a9f86277651e93ddf39cda64a046a06778b. GlobalAssemblyCache: False
2021-11-02 23:42:01.8293 Info Message Template Auto Format enabled
2021-11-02 23:42:01.8475 Info Loading assembly: NLog.Web.AspNetCore
2021-11-02 23:42:01.8736 Info Adding target FileTarget(Name=alldata)
2021-11-02 23:42:01.8954 Info Validating config: TargetNames=alldata, ConfigItems=16, FilePath=C:\_dev\BlackHills\bin\Debug\netcoreapp3.1\NLog.config
2021-11-02 23:42:01.9112 Info Configuration initialized.
2021-11-02 23:42:01.9112 Info NLog, Version=4.0.0.0, Culture=neutral, PublicKeyToken=5120e14c03d0593c. File version: 4.7.11.13229. Product version: 4.7.11+33ed3a9f86277651e93ddf39cda64a046a06778b. GlobalAssemblyCache: False
2021-11-03 00:27:59.9995 Info Message Template Auto Format enabled
2021-11-03 00:28:00.0196 Info Loading assembly: NLog.Web.AspNetCore
2021-11-03 00:28:00.0427 Info Adding target FileTarget(Name=alldata)
2021-11-03 00:28:00.0633 Info Validating config: TargetNames=alldata, ConfigItems=16, FilePath=C:\_dev\BlackHills\bin\Debug\netcoreapp3.1\NLog.config
2021-11-03 00:28:00.0771 Info Configuration initialized.
2021-11-03 00:28:00.0771 Info NLog, Version=4.0.0.0, Culture=neutral, PublicKeyToken=5120e14c03d0593c. File version: 4.7.11.13229. Product version: 4.7.11+33ed3a9f86277651e93ddf39cda64a046a06778b. GlobalAssemblyCache: False
2021-11-03 00:31:35.7574 Info Message Template Auto Format enabled
2021-11-03 00:31:35.7774 Info Loading assembly: NLog.Web.AspNetCore
2021-11-03 00:31:35.8000 Info Adding target FileTarget(Name=alldata)
2021-11-03 00:31:35.8227 Info Validating config: TargetNames=alldata, ConfigItems=16, FilePath=C:\_dev\BlackHills\bin\Debug\netcoreapp3.1\NLog.config
2021-11-03 00:31:35.8363 Info Configuration initialized.
2021-11-03 00:31:35.8363 Info NLog, Version=4.0.0.0, Culture=neutral, PublicKeyToken=5120e14c03d0593c. File version: 4.7.11.13229. Product version: 4.7.11+33ed3a9f86277651e93ddf39cda64a046a06778b. GlobalAssemblyCache: False
2021-11-03 00:33:55.6452 Info Message Template Auto Format enabled
2021-11-03 00:33:55.6610 Info Loading assembly: NLog.Web.AspNetCore
2021-11-03 00:33:55.6844 Info Adding target FileTarget(Name=alldata)
2021-11-03 00:33:55.7034 Info Validating config: TargetNames=alldata, ConfigItems=16, FilePath=C:\_dev\BlackHills\bin\Debug\netcoreapp3.1\NLog.config
2021-11-03 00:33:55.7146 Info Configuration initialized.
2021-11-03 00:33:55.7146 Info NLog, Version=4.0.0.0, Culture=neutral, PublicKeyToken=5120e14c03d0593c. File version: 4.7.11.13229. Product version: 4.7.11+33ed3a9f86277651e93ddf39cda64a046a06778b. GlobalAssemblyCache: False
2021-11-03 00:35:44.3279 Info Message Template Auto Format enabled
2021-11-03 00:35:44.3508 Info Loading assembly: NLog.Web.AspNetCore
2021-11-03 00:35:44.3772 Info Adding target FileTarget(Name=alldata)
2021-11-03 00:35:44.4025 Info Validating config: TargetNames=alldata, ConfigItems=16, FilePath=C:\_dev\BlackHills\bin\Debug\netcoreapp3.1\NLog.config
2021-11-03 00:35:44.4164 Info Configuration initialized.
2021-11-03 00:35:44.4164 Info NLog, Version=4.0.0.0, Culture=neutral, PublicKeyToken=5120e14c03d0593c. File version: 4.7.11.13229. Product version: 4.7.11+33ed3a9f86277651e93ddf39cda64a046a06778b. GlobalAssemblyCache: False
2021-11-03 09:29:22.3030 Info Message Template Auto Format enabled
2021-11-03 09:29:22.3174 Info Loading assembly: NLog.Web.AspNetCore
2021-11-03 09:29:22.3385 Info Adding target FileTarget(Name=alldata)
2021-11-03 09:29:22.3573 Info Validating config: TargetNames=alldata, ConfigItems=16, FilePath=C:\_dev\BlackHills\bin\Debug\netcoreapp3.1\NLog.config
2021-11-03 09:29:22.3700 Info Configuration initialized.
2021-11-03 09:29:22.3700 Info NLog, Version=4.0.0.0, Culture=neutral, PublicKeyToken=5120e14c03d0593c. File version: 4.7.11.13229. Product version: 4.7.11+33ed3a9f86277651e93ddf39cda64a046a06778b. GlobalAssemblyCache: False
2021-11-03 11:21:40.8304 Info Message Template Auto Format enabled
2021-11-03 11:21:40.8554 Info Loading assembly: NLog.Web.AspNetCore
2021-11-03 11:21:40.9163 Info Adding target FileTarget(Name=alldata)
2021-11-03 11:21:40.9667 Info Validating config: TargetNames=alldata, ConfigItems=16, FilePath=C:\_dev\BlackHills\bin\Debug\netcoreapp3.1\NLog.config
2021-11-03 11:21:40.9959 Info Configuration initialized.
2021-11-03 11:21:40.9959 Info NLog, Version=4.0.0.0, Culture=neutral, PublicKeyToken=5120e14c03d0593c. File version: 4.7.11.13229. Product version: 4.7.11+33ed3a9f86277651e93ddf39cda64a046a06778b. GlobalAssemblyCache: False
2021-11-03 12:22:57.2363 Info Message Template Auto Format enabled
2021-11-03 12:22:57.2566 Info Loading assembly: NLog.Web.AspNetCore
2021-11-03 12:22:57.2870 Info Adding target FileTarget(Name=alldata)
2021-11-03 12:22:57.3099 Info Validating config: TargetNames=alldata, ConfigItems=16, FilePath=C:\_dev\BlackHills\bin\Debug\netcoreapp3.1\NLog.config
2021-11-03 12:22:57.3284 Info Configuration initialized.
2021-11-03 12:22:57.3284 Info NLog, Version=4.0.0.0, Culture=neutral, PublicKeyToken=5120e14c03d0593c. File version: 4.7.11.13229. Product version: 4.7.11+33ed3a9f86277651e93ddf39cda64a046a06778b. GlobalAssemblyCache: False
2021-11-03 12:50:07.2797 Info Message Template Auto Format enabled
2021-11-03 12:50:07.3000 Info Loading assembly: NLog.Web.AspNetCore
2021-11-03 12:50:07.3298 Info Adding target FileTarget(Name=alldata)
2021-11-03 12:50:07.3558 Info Validating config: TargetNames=alldata, ConfigItems=16, FilePath=C:\_dev\BlackHills\bin\Debug\netcoreapp3.1\NLog.config
2021-11-03 12:50:07.3689 Info Configuration initialized.
2021-11-03 12:50:07.3689 Info NLog, Version=4.0.0.0, Culture=neutral, PublicKeyToken=5120e14c03d0593c. File version: 4.7.11.13229. Product version: 4.7.11+33ed3a9f86277651e93ddf39cda64a046a06778b. GlobalAssemblyCache: False
2021-11-03 14:56:44.1609 Info Message Template Auto Format enabled
2021-11-03 14:56:44.1724 Info Loading assembly: NLog.Web.AspNetCore
2021-11-03 14:56:44.1930 Info Adding target FileTarget(Name=alldata)
2021-11-03 14:56:44.2121 Info Validating config: TargetNames=alldata, ConfigItems=16, FilePath=C:\_dev\BlackHills\bin\Debug\netcoreapp3.1\NLog.config
2021-11-03 14:56:44.2236 Info Configuration initialized.
2021-11-03 14:56:44.2236 Info NLog, Version=4.0.0.0, Culture=neutral, PublicKeyToken=5120e14c03d0593c. File version: 4.7.11.13229. Product version: 4.7.11+33ed3a9f86277651e93ddf39cda64a046a06778b. GlobalAssemblyCache: False
2021-11-03 15:11:16.1081 Info Message Template Auto Format enabled
2021-11-03 15:11:16.1203 Info Loading assembly: NLog.Web.AspNetCore
2021-11-03 15:11:16.1502 Info Adding target FileTarget(Name=alldata)
2021-11-03 15:11:16.1750 Info Validating config: TargetNames=alldata, ConfigItems=16, FilePath=C:\_dev\BlackHills\bin\Debug\netcoreapp3.1\NLog.config
2021-11-03 15:11:16.1895 Info Configuration initialized.
2021-11-03 15:11:16.1895 Info NLog, Version=4.0.0.0, Culture=neutral, PublicKeyToken=5120e14c03d0593c. File version: 4.7.11.13229. Product version: 4.7.11+33ed3a9f86277651e93ddf39cda64a046a06778b. GlobalAssemblyCache: False
2021-11-03 18:22:48.1779 Info Message Template Auto Format enabled
2021-11-03 18:22:48.1883 Info Loading assembly: NLog.Web.AspNetCore
2021-11-03 18:22:48.2110 Info Adding target FileTarget(Name=alldata)
2021-11-03 18:22:48.2280 Info Validating config: TargetNames=alldata, ConfigItems=16, FilePath=C:\_dev\BlackHills\bin\Debug\netcoreapp3.1\NLog.config
2021-11-03 18:22:48.2280 Info Configuration initialized.
2021-11-03 18:22:48.2280 Info NLog, Version=4.0.0.0, Culture=neutral, PublicKeyToken=5120e14c03d0593c. File version: 4.7.11.13229. Product version: 4.7.11+33ed3a9f86277651e93ddf39cda64a046a06778b. GlobalAssemblyCache: False
2021-11-03 18:24:27.5598 Info Message Template Auto Format enabled
2021-11-03 18:24:27.5740 Info Loading assembly: NLog.Web.AspNetCore
2021-11-03 18:24:27.6008 Info Adding target FileTarget(Name=alldata)
2021-11-03 18:24:27.6257 Info Validating config: TargetNames=alldata, ConfigItems=16, FilePath=C:\_dev\BlackHills\bin\Debug\netcoreapp3.1\NLog.config
2021-11-03 18:24:27.6385 Info Configuration initialized.
2021-11-03 18:24:27.6385 Info NLog, Version=4.0.0.0, Culture=neutral, PublicKeyToken=5120e14c03d0593c. File version: 4.7.11.13229. Product version: 4.7.11+33ed3a9f86277651e93ddf39cda64a046a06778b. GlobalAssemblyCache: False
2021-11-03 18:29:51.6343 Info Message Template Auto Format enabled
2021-11-03 18:29:51.6343 Info Loading assembly: NLog.Web.AspNetCore
2021-11-03 18:29:51.6662 Info Adding target FileTarget(Name=alldata)
2021-11-03 18:29:51.6866 Info Validating config: TargetNames=alldata, ConfigItems=16, FilePath=C:\_dev\BlackHills\bin\Debug\netcoreapp3.1\NLog.config
2021-11-03 18:29:51.6972 Info Configuration initialized.
2021-11-03 18:29:51.6972 Info NLog, Version=4.0.0.0, Culture=neutral, PublicKeyToken=5120e14c03d0593c. File version: 4.7.11.13229. Product version: 4.7.11+33ed3a9f86277651e93ddf39cda64a046a06778b. GlobalAssemblyCache: False
2021-11-03 18:31:21.3077 Info Message Template Auto Format enabled
2021-11-03 18:31:21.3196 Info Loading assembly: NLog.Web.AspNetCore
2021-11-03 18:31:21.3464 Info Adding target FileTarget(Name=alldata)
2021-11-03 18:31:21.3761 Info Validating config: TargetNames=alldata, ConfigItems=16, FilePath=C:\_dev\BlackHills\bin\Debug\netcoreapp3.1\NLog.config
2021-11-03 18:31:21.3909 Info Configuration initialized.
2021-11-03 18:31:21.3909 Info NLog, Version=4.0.0.0, Culture=neutral, PublicKeyToken=5120e14c03d0593c. File version: 4.7.11.13229. Product version: 4.7.11+33ed3a9f86277651e93ddf39cda64a046a06778b. GlobalAssemblyCache: False
2021-11-03 18:33:44.6849 Info Message Template Auto Format enabled
2021-11-03 18:33:44.6966 Info Loading assembly: NLog.Web.AspNetCore
2021-11-03 18:33:44.7184 Info Adding target FileTarget(Name=alldata)
2021-11-03 18:33:44.7377 Info Validating config: TargetNames=alldata, ConfigItems=16, FilePath=C:\_dev\BlackHills\bin\Debug\netcoreapp3.1\NLog.config
2021-11-03 18:33:44.7483 Info Configuration initialized.
2021-11-03 18:33:44.7483 Info NLog, Version=4.0.0.0, Culture=neutral, PublicKeyToken=5120e14c03d0593c. File version: 4.7.11.13229. Product version: 4.7.11+33ed3a9f86277651e93ddf39cda64a046a06778b. GlobalAssemblyCache: False
2021-11-03 18:35:15.0452 Info Message Template Auto Format enabled
2021-11-03 18:35:15.0563 Info Loading assembly: NLog.Web.AspNetCore
2021-11-03 18:35:15.0763 Info Adding target FileTarget(Name=alldata)
2021-11-03 18:35:15.0952 Info Validating config: TargetNames=alldata, ConfigItems=16, FilePath=C:\_dev\BlackHills\bin\Debug\netcoreapp3.1\NLog.config
2021-11-03 18:35:15.1082 Info Configuration initialized.
2021-11-03 18:35:15.1082 Info NLog, Version=4.0.0.0, Culture=neutral, PublicKeyToken=5120e14c03d0593c. File version: 4.7.11.13229. Product version: 4.7.11+33ed3a9f86277651e93ddf39cda64a046a06778b. GlobalAssemblyCache: False
2021-11-03 19:05:06.9275 Info Message Template Auto Format enabled
2021-11-03 19:05:06.9444 Info Loading assembly: NLog.Web.AspNetCore
2021-11-03 19:05:06.9806 Info Adding target FileTarget(Name=alldata)
2021-11-03 19:05:07.0224 Info Validating config: TargetNames=alldata, ConfigItems=16, FilePath=C:\_dev\BlackHills\bin\Debug\netcoreapp3.1\NLog.config
2021-11-03 19:05:07.0443 Info Configuration initialized.
2021-11-03 19:05:07.0443 Info NLog, Version=4.0.0.0, Culture=neutral, PublicKeyToken=5120e14c03d0593c. File version: 4.7.11.13229. Product version: 4.7.11+33ed3a9f86277651e93ddf39cda64a046a06778b. GlobalAssemblyCache: False
2021-11-03 19:10:52.9568 Info Message Template Auto Format enabled
2021-11-03 19:10:52.9716 Info Loading assembly: NLog.Web.AspNetCore
2021-11-03 19:10:52.9972 Info Adding target FileTarget(Name=alldata)
2021-11-03 19:10:53.0203 Info Validating config: TargetNames=alldata, ConfigItems=16, FilePath=C:\_dev\BlackHills\bin\Debug\netcoreapp3.1\NLog.config
2021-11-03 19:10:53.0364 Info Configuration initialized.
2021-11-03 19:10:53.0364 Info NLog, Version=4.0.0.0, Culture=neutral, PublicKeyToken=5120e14c03d0593c. File version: 4.7.11.13229. Product version: 4.7.11+33ed3a9f86277651e93ddf39cda64a046a06778b. GlobalAssemblyCache: False
2021-11-03 19:19:19.6934 Info Message Template Auto Format enabled
2021-11-03 19:19:19.7072 Info Loading assembly: NLog.Web.AspNetCore
2021-11-03 19:19:19.7290 Info Adding target FileTarget(Name=alldata)
2021-11-03 19:19:19.7502 Info Validating config: TargetNames=alldata, ConfigItems=16, FilePath=C:\_dev\BlackHills\bin\Debug\netcoreapp3.1\NLog.config
2021-11-03 19:19:19.7623 Info Configuration initialized.
2021-11-03 19:19:19.7623 Info NLog, Version=4.0.0.0, Culture=neutral, PublicKeyToken=5120e14c03d0593c. File version: 4.7.11.13229. Product version: 4.7.11+33ed3a9f86277651e93ddf39cda64a046a06778b. GlobalAssemblyCache: False
2021-11-03 19:19:54.8293 Info Message Template Auto Format enabled
2021-11-03 19:19:54.8458 Info Loading assembly: NLog.Web.AspNetCore
2021-11-03 19:19:54.8744 Info Adding target FileTarget(Name=alldata)
2021-11-03 19:19:54.9006 Info Validating config: TargetNames=alldata, ConfigItems=16, FilePath=C:\_dev\BlackHills\bin\Debug\netcoreapp3.1\NLog.config
2021-11-03 19:19:54.9152 Info Configuration initialized.
2021-11-03 19:19:54.9152 Info NLog, Version=4.0.0.0, Culture=neutral, PublicKeyToken=5120e14c03d0593c. File version: 4.7.11.13229. Product version: 4.7.11+33ed3a9f86277651e93ddf39cda64a046a06778b. GlobalAssemblyCache: False
2021-11-03 19:37:41.5262 Info Message Template Auto Format enabled
2021-11-03 19:37:41.5402 Info Loading assembly: NLog.Web.AspNetCore
2021-11-03 19:37:41.5610 Info Adding target FileTarget(Name=alldata)
2021-11-03 19:37:41.5804 Info Validating config: TargetNames=alldata, ConfigItems=16, FilePath=C:\_dev\BlackHills\bin\Debug\netcoreapp3.1\NLog.config
2021-11-03 19:37:41.5916 Info Configuration initialized.
2021-11-03 19:37:41.5916 Info NLog, Version=4.0.0.0, Culture=neutral, PublicKeyToken=5120e14c03d0593c. File version: 4.7.11.13229. Product version: 4.7.11+33ed3a9f86277651e93ddf39cda64a046a06778b. GlobalAssemblyCache: False
2021-11-03 22:01:14.0253 Info Message Template Auto Format enabled
2021-11-03 22:01:14.0253 Info Loading assembly: NLog.Web.AspNetCore
2021-11-03 22:01:14.0599 Info Adding target FileTarget(Name=alldata)
2021-11-03 22:01:14.0806 Info Validating config: TargetNames=alldata, ConfigItems=16, FilePath=C:\_dev\BlackHills\bin\Debug\netcoreapp3.1\NLog.config
2021-11-03 22:01:14.0930 Info Configuration initialized.
2021-11-03 22:01:14.0930 Info NLog, Version=4.0.0.0, Culture=neutral, PublicKeyToken=5120e14c03d0593c. File version: 4.7.11.13229. Product version: 4.7.11+33ed3a9f86277651e93ddf39cda64a046a06778b. GlobalAssemblyCache: False
2021-11-03 22:02:59.8059 Info Message Template Auto Format enabled
2021-11-03 22:02:59.8059 Info Loading assembly: NLog.Web.AspNetCore
2021-11-03 22:02:59.8365 Info Adding target FileTarget(Name=alldata)
2021-11-03 22:02:59.8553 Info Validating config: TargetNames=alldata, ConfigItems=16, FilePath=C:\_dev\BlackHills\bin\Debug\netcoreapp3.1\NLog.config
2021-11-03 22:02:59.8671 Info Configuration initialized.
2021-11-03 22:02:59.8671 Info NLog, Version=4.0.0.0, Culture=neutral, PublicKeyToken=5120e14c03d0593c. File version: 4.7.11.13229. Product version: 4.7.11+33ed3a9f86277651e93ddf39cda64a046a06778b. GlobalAssemblyCache: False
2021-11-03 22:04:59.9087 Info Message Template Auto Format enabled
2021-11-03 22:04:59.9199 Info Loading assembly: NLog.Web.AspNetCore
2021-11-03 22:04:59.9463 Info Adding target FileTarget(Name=alldata)
2021-11-03 22:04:59.9671 Info Validating config: TargetNames=alldata, ConfigItems=16, FilePath=C:\_dev\BlackHills\bin\Debug\netcoreapp3.1\NLog.config
2021-11-03 22:04:59.9786 Info Configuration initialized.
2021-11-03 22:04:59.9786 Info NLog, Version=4.0.0.0, Culture=neutral, PublicKeyToken=5120e14c03d0593c. File version: 4.7.11.13229. Product version: 4.7.11+33ed3a9f86277651e93ddf39cda64a046a06778b. GlobalAssemblyCache: False
2021-11-03 22:15:45.7208 Info Message Template Auto Format enabled
2021-11-03 22:15:45.7308 Info Loading assembly: NLog.Web.AspNetCore
2021-11-03 22:15:45.7505 Info Adding target FileTarget(Name=alldata)
2021-11-03 22:15:45.7692 Info Validating config: TargetNames=alldata, ConfigItems=16, FilePath=C:\_dev\BlackHills\bin\Debug\netcoreapp3.1\NLog.config
2021-11-03 22:15:45.7794 Info Configuration initialized.
2021-11-03 22:15:45.7794 Info NLog, Version=4.0.0.0, Culture=neutral, PublicKeyToken=5120e14c03d0593c. File version: 4.7.11.13229. Product version: 4.7.11+33ed3a9f86277651e93ddf39cda64a046a06778b. GlobalAssemblyCache: False
2021-11-03 22:19:20.7964 Info Message Template Auto Format enabled
2021-11-03 22:19:20.8081 Info Loading assembly: NLog.Web.AspNetCore
2021-11-03 22:19:20.8279 Info Adding target FileTarget(Name=alldata)
2021-11-03 22:19:20.8462 Info Validating config: TargetNames=alldata, ConfigItems=16, FilePath=C:\_dev\BlackHills\bin\Debug\netcoreapp3.1\NLog.config
2021-11-03 22:19:20.8563 Info Configuration initialized.
2021-11-03 22:19:20.8563 Info NLog, Version=4.0.0.0, Culture=neutral, PublicKeyToken=5120e14c03d0593c. File version: 4.7.11.13229. Product version: 4.7.11+33ed3a9f86277651e93ddf39cda64a046a06778b. GlobalAssemblyCache: False
2021-11-03 22:20:30.4938 Info Message Template Auto Format enabled
2021-11-03 22:20:30.4938 Info Loading assembly: NLog.Web.AspNetCore
2021-11-03 22:20:30.5241 Info Adding target FileTarget(Name=alldata)
2021-11-03 22:20:30.5436 Info Validating config: TargetNames=alldata, ConfigItems=16, FilePath=C:\_dev\BlackHills\bin\Debug\netcoreapp3.1\NLog.config
2021-11-03 22:20:30.5551 Info Configuration initialized.
2021-11-03 22:20:30.5551 Info NLog, Version=4.0.0.0, Culture=neutral, PublicKeyToken=5120e14c03d0593c. File version: 4.7.11.13229. Product version: 4.7.11+33ed3a9f86277651e93ddf39cda64a046a06778b. GlobalAssemblyCache: False
2021-11-03 22:23:11.7164 Info Message Template Auto Format enabled
2021-11-03 22:23:11.7332 Info Loading assembly: NLog.Web.AspNetCore
2021-11-03 22:23:11.7582 Info Adding target FileTarget(Name=alldata)
2021-11-03 22:23:11.7791 Info Validating config: TargetNames=alldata, ConfigItems=16, FilePath=C:\_dev\BlackHills\bin\Debug\netcoreapp3.1\NLog.config
2021-11-03 22:23:11.7915 Info Configuration initialized.
2021-11-03 22:23:11.7915 Info NLog, Version=4.0.0.0, Culture=neutral, PublicKeyToken=5120e14c03d0593c. File version: 4.7.11.13229. Product version: 4.7.11+33ed3a9f86277651e93ddf39cda64a046a06778b. GlobalAssemblyCache: False
2021-11-03 22:24:56.1864 Info Message Template Auto Format enabled
2021-11-03 22:24:56.1983 Info Loading assembly: NLog.Web.AspNetCore
2021-11-03 22:24:56.2229 Info Adding target FileTarget(Name=alldata)
2021-11-03 22:24:56.2483 Info Validating config: TargetNames=alldata, ConfigItems=16, FilePath=C:\_dev\BlackHills\bin\Debug\netcoreapp3.1\NLog.config
2021-11-03 22:24:56.2642 Info Configuration initialized.
2021-11-03 22:24:56.2642 Info NLog, Version=4.0.0.0, Culture=neutral, PublicKeyToken=5120e14c03d0593c. File version: 4.7.11.13229. Product version: 4.7.11+33ed3a9f86277651e93ddf39cda64a046a06778b. GlobalAssemblyCache: False
2021-11-03 22:27:25.7462 Info Message Template Auto Format enabled
2021-11-03 22:27:25.7462 Info Loading assembly: NLog.Web.AspNetCore
2021-11-03 22:27:25.7853 Info Adding target FileTarget(Name=alldata)
2021-11-03 22:27:25.8080 Info Validating config: TargetNames=alldata, ConfigItems=16, FilePath=C:\_dev\BlackHills\bin\Debug\netcoreapp3.1\NLog.config
2021-11-03 22:27:25.8223 Info Configuration initialized.
2021-11-03 22:27:25.8235 Info NLog, Version=4.0.0.0, Culture=neutral, PublicKeyToken=5120e14c03d0593c. File version: 4.7.11.13229. Product version: 4.7.11+33ed3a9f86277651e93ddf39cda64a046a06778b. GlobalAssemblyCache: False
2021-11-03 22:28:35.9231 Info Message Template Auto Format enabled
2021-11-03 22:28:35.9349 Info Loading assembly: NLog.Web.AspNetCore
2021-11-03 22:28:35.9562 Info Adding target FileTarget(Name=alldata)
2021-11-03 22:28:35.9762 Info Validating config: TargetNames=alldata, ConfigItems=16, FilePath=C:\_dev\BlackHills\bin\Debug\netcoreapp3.1\NLog.config
2021-11-03 22:28:35.9762 Info Configuration initialized.
2021-11-03 22:28:35.9762 Info NLog, Version=4.0.0.0, Culture=neutral, PublicKeyToken=5120e14c03d0593c. File version: 4.7.11.13229. Product version: 4.7.11+33ed3a9f86277651e93ddf39cda64a046a06778b. GlobalAssemblyCache: False
2021-11-03 22:30:34.3744 Info Message Template Auto Format enabled
2021-11-03 22:30:34.3839 Info Loading assembly: NLog.Web.AspNetCore
2021-11-03 22:30:34.4043 Info Adding target FileTarget(Name=alldata)
2021-11-03 22:30:34.4227 Info Validating config: TargetNames=alldata, ConfigItems=16, FilePath=C:\_dev\BlackHills\bin\Debug\netcoreapp3.1\NLog.config
2021-11-03 22:30:34.4337 Info Configuration initialized.
2021-11-03 22:30:34.4337 Info NLog, Version=4.0.0.0, Culture=neutral, PublicKeyToken=5120e14c03d0593c. File version: 4.7.11.13229. Product version: 4.7.11+33ed3a9f86277651e93ddf39cda64a046a06778b. GlobalAssemblyCache: False
2021-11-03 22:31:31.6539 Info Message Template Auto Format enabled
2021-11-03 22:31:31.6642 Info Loading assembly: NLog.Web.AspNetCore
2021-11-03 22:31:31.6840 Info Adding target FileTarget(Name=alldata)
2021-11-03 22:31:31.7023 Info Validating config: TargetNames=alldata, ConfigItems=16, FilePath=C:\_dev\BlackHills\bin\Debug\netcoreapp3.1\NLog.config
2021-11-03 22:31:31.7129 Info Configuration initialized.
2021-11-03 22:31:31.7129 Info NLog, Version=4.0.0.0, Culture=neutral, PublicKeyToken=5120e14c03d0593c. File version: 4.7.11.13229. Product version: 4.7.11+33ed3a9f86277651e93ddf39cda64a046a06778b. GlobalAssemblyCache: False
2021-11-03 22:32:20.3506 Info Message Template Auto Format enabled
2021-11-03 22:32:20.3506 Info Loading assembly: NLog.Web.AspNetCore
2021-11-03 22:32:20.3822 Info Adding target FileTarget(Name=alldata)
2021-11-03 22:32:20.4015 Info Validating config: TargetNames=alldata, ConfigItems=16, FilePath=C:\_dev\BlackHills\bin\Debug\netcoreapp3.1\NLog.config
2021-11-03 22:32:20.4128 Info Configuration initialized.
2021-11-03 22:32:20.4128 Info NLog, Version=4.0.0.0, Culture=neutral, PublicKeyToken=5120e14c03d0593c. File version: 4.7.11.13229. Product version: 4.7.11+33ed3a9f86277651e93ddf39cda64a046a06778b. GlobalAssemblyCache: False
2021-11-03 22:34:23.6280 Info Message Template Auto Format enabled
2021-11-03 22:34:23.6388 Info Loading assembly: NLog.Web.AspNetCore
2021-11-03 22:34:23.6586 Info Adding target FileTarget(Name=alldata)
2021-11-03 22:34:23.6767 Info Validating config: TargetNames=alldata, ConfigItems=16, FilePath=C:\_dev\BlackHills\bin\Debug\netcoreapp3.1\NLog.config
2021-11-03 22:34:23.6869 Info Configuration initialized.
2021-11-03 22:34:23.6869 Info NLog, Version=4.0.0.0, Culture=neutral, PublicKeyToken=5120e14c03d0593c. File version: 4.7.11.13229. Product version: 4.7.11+33ed3a9f86277651e93ddf39cda64a046a06778b. GlobalAssemblyCache: False
2021-11-03 22:36:15.1657 Info Message Template Auto Format enabled
2021-11-03 22:36:15.1657 Info Loading assembly: NLog.Web.AspNetCore
2021-11-03 22:36:15.1978 Info Adding target FileTarget(Name=alldata)
2021-11-03 22:36:15.2190 Info Validating config: TargetNames=alldata, ConfigItems=16, FilePath=C:\_dev\BlackHills\bin\Debug\netcoreapp3.1\NLog.config
2021-11-03 22:36:15.2346 Info Configuration initialized.
2021-11-03 22:36:15.2346 Info NLog, Version=4.0.0.0, Culture=neutral, PublicKeyToken=5120e14c03d0593c. File version: 4.7.11.13229. Product version: 4.7.11+33ed3a9f86277651e93ddf39cda64a046a06778b. GlobalAssemblyCache: False
2021-11-03 22:38:19.8708 Info Message Template Auto Format enabled
2021-11-03 22:38:19.8805 Info Loading assembly: NLog.Web.AspNetCore
2021-11-03 22:38:19.9003 Info Adding target FileTarget(Name=alldata)
2021-11-03 22:38:19.9192 Info Validating config: TargetNames=alldata, ConfigItems=16, FilePath=C:\_dev\BlackHills\bin\Debug\netcoreapp3.1\NLog.config
2021-11-03 22:38:19.9295 Info Configuration initialized.
2021-11-03 22:38:19.9295 Info NLog, Version=4.0.0.0, Culture=neutral, PublicKeyToken=5120e14c03d0593c. File version: 4.7.11.13229. Product version: 4.7.11+33ed3a9f86277651e93ddf39cda64a046a06778b. GlobalAssemblyCache: False
2021-11-03 22:59:15.7894 Info Message Template Auto Format enabled
2021-11-03 22:59:15.8029 Info Loading assembly: NLog.Web.AspNetCore
2021-11-03 22:59:15.8299 Info Adding target FileTarget(Name=alldata)
2021-11-03 22:59:15.8527 Info Validating config: TargetNames=alldata, ConfigItems=16, FilePath=C:\_dev\BlackHills\bin\Debug\netcoreapp3.1\NLog.config
2021-11-03 22:59:15.8527 Info Configuration initialized.
2021-11-03 22:59:15.8527 Info NLog, Version=4.0.0.0, Culture=neutral, PublicKeyToken=5120e14c03d0593c. File version: 4.7.11.13229. Product version: 4.7.11+33ed3a9f86277651e93ddf39cda64a046a06778b. GlobalAssemblyCache: False
2021-11-03 23:10:53.7261 Info Message Template Auto Format enabled
2021-11-03 23:10:53.7261 Info Loading assembly: NLog.Web.AspNetCore
2021-11-03 23:10:53.7610 Info Adding target FileTarget(Name=alldata)
2021-11-03 23:10:53.7824 Info Validating config: TargetNames=alldata, ConfigItems=16, FilePath=C:\_dev\BlackHills\bin\Debug\netcoreapp3.1\NLog.config
2021-11-03 23:10:53.7959 Info Configuration initialized.
2021-11-03 23:10:53.7959 Info NLog, Version=4.0.0.0, Culture=neutral, PublicKeyToken=5120e14c03d0593c. File version: 4.7.11.13229. Product version: 4.7.11+33ed3a9f86277651e93ddf39cda64a046a06778b. GlobalAssemblyCache: False
2021-11-04 14:44:15.8434 Info Message Template Auto Format enabled
2021-11-04 14:44:15.8585 Info Loading assembly: NLog.Web.AspNetCore
2021-11-04 14:44:15.8914 Info Adding target FileTarget(Name=alldata)
2021-11-04 14:44:15.9151 Info Validating config: TargetNames=alldata, ConfigItems=16, FilePath=C:\_dev\BlackHills\bin\Debug\netcoreapp3.1\NLog.config
2021-11-04 14:44:15.9151 Info Configuration initialized.
2021-11-04 14:44:15.9288 Info NLog, Version=4.0.0.0, Culture=neutral, PublicKeyToken=5120e14c03d0593c. File version: 4.7.11.13229. Product version: 4.7.11+33ed3a9f86277651e93ddf39cda64a046a06778b. GlobalAssemblyCache: False
2021-11-04 14:51:22.0624 Info Message Template Auto Format enabled
2021-11-04 14:51:22.0725 Info Loading assembly: NLog.Web.AspNetCore
2021-11-04 14:51:22.0955 Info Adding target FileTarget(Name=alldata)
2021-11-04 14:51:22.1154 Info Validating config: TargetNames=alldata, ConfigItems=16, FilePath=C:\_dev\BlackHills\bin\Debug\netcoreapp3.1\NLog.config
2021-11-04 14:51:22.1154 Info Configuration initialized.
2021-11-04 14:51:22.1154 Info NLog, Version=4.0.0.0, Culture=neutral, PublicKeyToken=5120e14c03d0593c. File version: 4.7.11.13229. Product version: 4.7.11+33ed3a9f86277651e93ddf39cda64a046a06778b. GlobalAssemblyCache: False
2021-11-04 14:52:42.9657 Info Message Template Auto Format enabled
2021-11-04 14:52:42.9761 Info Loading assembly: NLog.Web.AspNetCore
2021-11-04 14:52:42.9966 Info Adding target FileTarget(Name=alldata)
2021-11-04 14:52:43.0153 Info Validating config: TargetNames=alldata, ConfigItems=16, FilePath=C:\_dev\BlackHills\bin\Debug\netcoreapp3.1\NLog.config
2021-11-04 14:52:43.0259 Info Configuration initialized.
2021-11-04 14:52:43.0259 Info NLog, Version=4.0.0.0, Culture=neutral, PublicKeyToken=5120e14c03d0593c. File version: 4.7.11.13229. Product version: 4.7.11+33ed3a9f86277651e93ddf39cda64a046a06778b. GlobalAssemblyCache: False
2021-11-04 15:20:30.6759 Info Message Template Auto Format enabled
2021-11-04 15:20:30.6893 Info Loading assembly: NLog.Web.AspNetCore
2021-11-04 15:20:30.7191 Info Adding target FileTarget(Name=alldata)
2021-11-04 15:20:30.7457 Info Validating config: TargetNames=alldata, ConfigItems=16, FilePath=C:\_dev\BlackHills\bin\Debug\netcoreapp3.1\NLog.config
2021-11-04 15:20:30.7606 Info Configuration initialized.
2021-11-04 15:20:30.7606 Info NLog, Version=4.0.0.0, Culture=neutral, PublicKeyToken=5120e14c03d0593c. File version: 4.7.11.13229. Product version: 4.7.11+33ed3a9f86277651e93ddf39cda64a046a06778b. GlobalAssemblyCache: False
2021-11-04 16:13:43.3726 Info Message Template Auto Format enabled
2021-11-04 16:13:43.3926 Info Loading assembly: NLog.Web.AspNetCore
2021-11-04 16:13:43.4194 Info Adding target FileTarget(Name=alldata)
2021-11-04 16:13:43.4521 Info Validating config: TargetNames=alldata, ConfigItems=16, FilePath=C:\_dev\BlackHills\bin\Debug\netcoreapp3.1\NLog.config
2021-11-04 16:13:43.4690 Info Configuration initialized.
2021-11-04 16:13:43.4690 Info NLog, Version=4.0.0.0, Culture=neutral, PublicKeyToken=5120e14c03d0593c. File version: 4.7.11.13229. Product version: 4.7.11+33ed3a9f86277651e93ddf39cda64a046a06778b. GlobalAssemblyCache: False
2021-11-04 16:18:27.7792 Info Message Template Auto Format enabled
2021-11-04 16:18:27.7911 Info Loading assembly: NLog.Web.AspNetCore
2021-11-04 16:18:27.8154 Info Adding target FileTarget(Name=alldata)
2021-11-04 16:18:27.8382 Info Validating config: TargetNames=alldata, ConfigItems=16, FilePath=C:\_dev\BlackHills\bin\Debug\netcoreapp3.1\NLog.config
2021-11-04 16:18:27.8503 Info Configuration initialized.
2021-11-04 16:18:27.8503 Info NLog, Version=4.0.0.0, Culture=neutral, PublicKeyToken=5120e14c03d0593c. File version: 4.7.11.13229. Product version: 4.7.11+33ed3a9f86277651e93ddf39cda64a046a06778b. GlobalAssemblyCache: False
2021-11-04 16:59:06.6507 Info Message Template Auto Format enabled
2021-11-04 16:59:06.6613 Info Loading assembly: NLog.Web.AspNetCore
2021-11-04 16:59:06.6860 Info Adding target FileTarget(Name=alldata)
2021-11-04 16:59:06.7063 Info Validating config: TargetNames=alldata, ConfigItems=16, FilePath=C:\_dev\BlackHills\bin\Debug\netcoreapp3.1\NLog.config
2021-11-04 16:59:06.7207 Info Configuration initialized.
2021-11-04 16:59:06.7207 Info NLog, Version=4.0.0.0, Culture=neutral, PublicKeyToken=5120e14c03d0593c. File version: 4.7.11.13229. Product version: 4.7.11+33ed3a9f86277651e93ddf39cda64a046a06778b. GlobalAssemblyCache: False
2021-11-04 18:23:13.5064 Info Message Template Auto Format enabled
2021-11-04 18:23:13.5197 Info Loading assembly: NLog.Web.AspNetCore
2021-11-04 18:23:13.5448 Info Adding target FileTarget(Name=alldata)
2021-11-04 18:23:13.5686 Info Validating config: TargetNames=alldata, ConfigItems=16, FilePath=C:\_dev\BlackHills\bin\Debug\netcoreapp3.1\NLog.config
2021-11-04 18:23:13.5814 Info Configuration initialized.
2021-11-04 18:23:13.5814 Info NLog, Version=4.0.0.0, Culture=neutral, PublicKeyToken=5120e14c03d0593c. File version: 4.7.11.13229. Product version: 4.7.11+33ed3a9f86277651e93ddf39cda64a046a06778b. GlobalAssemblyCache: False
2021-11-04 18:26:24.5690 Info Message Template Auto Format enabled
2021-11-04 18:26:24.5947 Info Loading assembly: NLog.Web.AspNetCore
2021-11-04 18:26:24.6209 Info Adding target FileTarget(Name=alldata)
2021-11-04 18:26:24.6440 Info Validating config: TargetNames=alldata, ConfigItems=16, FilePath=C:\_dev\BlackHills\bin\Debug\netcoreapp3.1\NLog.config
2021-11-04 18:26:24.6594 Info Configuration initialized.
2021-11-04 18:26:24.6594 Info NLog, Version=4.0.0.0, Culture=neutral, PublicKeyToken=5120e14c03d0593c. File version: 4.7.11.13229. Product version: 4.7.11+33ed3a9f86277651e93ddf39cda64a046a06778b. GlobalAssemblyCache: False
2021-11-04 18:27:49.2451 Info Message Template Auto Format enabled
2021-11-04 18:27:49.2582 Info Loading assembly: NLog.Web.AspNetCore
2021-11-04 18:27:49.2818 Info Adding target FileTarget(Name=alldata)
2021-11-04 18:27:49.3063 Info Validating config: TargetNames=alldata, ConfigItems=16, FilePath=C:\_dev\BlackHills\bin\Debug\netcoreapp3.1\NLog.config
2021-11-04 18:27:49.3230 Info Configuration initialized.
2021-11-04 18:27:49.3230 Info NLog, Version=4.0.0.0, Culture=neutral, PublicKeyToken=5120e14c03d0593c. File version: 4.7.11.13229. Product version: 4.7.11+33ed3a9f86277651e93ddf39cda64a046a06778b. GlobalAssemblyCache: False
2021-11-04 18:28:40.6256 Info Message Template Auto Format enabled
2021-11-04 18:28:40.6375 Info Loading assembly: NLog.Web.AspNetCore
2021-11-04 18:28:40.6639 Info Adding target FileTarget(Name=alldata)
2021-11-04 18:28:40.6900 Info Validating config: TargetNames=alldata, ConfigItems=16, FilePath=C:\_dev\BlackHills\bin\Debug\netcoreapp3.1\NLog.config
2021-11-04 18:28:40.7021 Info Configuration initialized.
2021-11-04 18:28:40.7021 Info NLog, Version=4.0.0.0, Culture=neutral, PublicKeyToken=5120e14c03d0593c. File version: 4.7.11.13229. Product version: 4.7.11+33ed3a9f86277651e93ddf39cda64a046a06778b. GlobalAssemblyCache: False
2021-11-04 18:31:53.9805 Info Message Template Auto Format enabled
2021-11-04 18:31:53.9805 Info Loading assembly: NLog.Web.AspNetCore
2021-11-04 18:31:54.0190 Info Adding target FileTarget(Name=alldata)
2021-11-04 18:31:54.0446 Info Validating config: TargetNames=alldata, ConfigItems=16, FilePath=C:\_dev\BlackHills\bin\Debug\netcoreapp3.1\NLog.config
2021-11-04 18:31:54.0599 Info Configuration initialized.
2021-11-04 18:31:54.0599 Info NLog, Version=4.0.0.0, Culture=neutral, PublicKeyToken=5120e14c03d0593c. File version: 4.7.11.13229. Product version: 4.7.11+33ed3a9f86277651e93ddf39cda64a046a06778b. GlobalAssemblyCache: False
2021-11-04 18:32:21.7408 Info Message Template Auto Format enabled
2021-11-04 18:32:21.7542 Info Loading assembly: NLog.Web.AspNetCore
2021-11-04 18:32:21.7784 Info Adding target FileTarget(Name=alldata)
2021-11-04 18:32:21.8139 Info Validating config: TargetNames=alldata, ConfigItems=16, FilePath=C:\_dev\BlackHills\bin\Debug\netcoreapp3.1\NLog.config
2021-11-04 18:32:21.8318 Info Configuration initialized.
2021-11-04 18:32:21.8318 Info NLog, Version=4.0.0.0, Culture=neutral, PublicKeyToken=5120e14c03d0593c. File version: 4.7.11.13229. Product version: 4.7.11+33ed3a9f86277651e93ddf39cda64a046a06778b. GlobalAssemblyCache: False
2021-11-04 18:33:44.6507 Info Message Template Auto Format enabled
2021-11-04 18:33:44.6642 Info Loading assembly: NLog.Web.AspNetCore
2021-11-04 18:33:44.6935 Info Adding target FileTarget(Name=alldata)
2021-11-04 18:33:44.7239 Info Validating config: TargetNames=alldata, ConfigItems=16, FilePath=C:\_dev\BlackHills\bin\Debug\netcoreapp3.1\NLog.config
2021-11-04 18:33:44.7452 Info Configuration initialized.
2021-11-04 18:33:44.7463 Info NLog, Version=4.0.0.0, Culture=neutral, PublicKeyToken=5120e14c03d0593c. File version: 4.7.11.13229. Product version: 4.7.11+33ed3a9f86277651e93ddf39cda64a046a06778b. GlobalAssemblyCache: False
2021-11-04 18:35:28.4752 Info Message Template Auto Format enabled
2021-11-04 18:35:28.4937 Info Loading assembly: NLog.Web.AspNetCore
2021-11-04 18:35:28.5240 Info Adding target FileTarget(Name=alldata)
2021-11-04 18:35:28.5563 Info Validating config: TargetNames=alldata, ConfigItems=16, FilePath=C:\_dev\BlackHills\bin\Debug\netcoreapp3.1\NLog.config
2021-11-04 18:35:28.5729 Info Configuration initialized.
2021-11-04 18:35:28.5729 Info NLog, Version=4.0.0.0, Culture=neutral, PublicKeyToken=5120e14c03d0593c. File version: 4.7.11.13229. Product version: 4.7.11+33ed3a9f86277651e93ddf39cda64a046a06778b. GlobalAssemblyCache: False
2021-11-10 14:02:33.7405 Info Message Template Auto Format enabled
2021-11-10 14:02:33.7537 Info Loading assembly: NLog.Web.AspNetCore
2021-11-10 14:02:33.7840 Info Adding target FileTarget(Name=alldata)
2021-11-10 14:02:33.8103 Info Validating config: TargetNames=alldata, ConfigItems=16, FilePath=C:\_dev\BlackHills\bin\Debug\netcoreapp3.1\NLog.config
2021-11-10 14:02:33.8103 Info Configuration initialized.
2021-11-10 14:02:33.8103 Info NLog, Version=4.0.0.0, Culture=neutral, PublicKeyToken=5120e14c03d0593c. File version: 4.7.11.13229. Product version: 4.7.11+33ed3a9f86277651e93ddf39cda64a046a06778b. GlobalAssemblyCache: False
2021-11-10 14:05:14.4654 Info Message Template Auto Format enabled
2021-11-10 14:05:14.4791 Info Loading assembly: NLog.Web.AspNetCore
2021-11-10 14:05:14.5068 Info Adding target FileTarget(Name=alldata)
2021-11-10 14:05:14.5452 Info Validating config: TargetNames=alldata, ConfigItems=16, FilePath=C:\_dev\BlackHills\bin\Debug\netcoreapp3.1\NLog.config
2021-11-10 14:05:14.5696 Info Configuration initialized.
2021-11-10 14:05:14.5696 Info NLog, Version=4.0.0.0, Culture=neutral, PublicKeyToken=5120e14c03d0593c. File version: 4.7.11.13229. Product version: 4.7.11+33ed3a9f86277651e93ddf39cda64a046a06778b. GlobalAssemblyCache: False
2021-11-11 10:21:47.1613 Info Message Template Auto Format enabled
2021-11-11 10:21:47.1786 Info Loading assembly: NLog.Web.AspNetCore
2021-11-11 10:21:47.2019 Info Adding target FileTarget(Name=alldata)
2021-11-11 10:21:47.2256 Info Validating config: TargetNames=alldata, ConfigItems=16, FilePath=C:\_dev\BlackHills\bin\Debug\netcoreapp3.1\NLog.config
2021-11-11 10:21:47.2425 Info Configuration initialized.
2021-11-11 10:21:47.2425 Info NLog, Version=4.0.0.0, Culture=neutral, PublicKeyToken=5120e14c03d0593c. File version: 4.7.11.13229. Product version: 4.7.11+33ed3a9f86277651e93ddf39cda64a046a06778b. GlobalAssemblyCache: False
2021-11-11 10:22:47.4551 Info Message Template Auto Format enabled
2021-11-11 10:22:47.4712 Info Loading assembly: NLog.Web.AspNetCore
2021-11-11 10:22:47.4917 Info Adding target FileTarget(Name=alldata)
2021-11-11 10:22:47.5183 Info Validating config: TargetNames=alldata, ConfigItems=16, FilePath=C:\_dev\BlackHills\bin\Debug\netcoreapp3.1\NLog.config
2021-11-11 10:22:47.5323 Info Configuration initialized.
2021-11-11 10:22:47.5323 Info NLog, Version=4.0.0.0, Culture=neutral, PublicKeyToken=5120e14c03d0593c. File version: 4.7.11.13229. Product version: 4.7.11+33ed3a9f86277651e93ddf39cda64a046a06778b. GlobalAssemblyCache: False
2021-11-11 10:27:49.8860 Info Message Template Auto Format enabled
2021-11-11 10:27:49.9040 Info Loading assembly: NLog.Web.AspNetCore
2021-11-11 10:27:49.9346 Info Adding target FileTarget(Name=alldata)
2021-11-11 10:27:49.9558 Info Validating config: TargetNames=alldata, ConfigItems=16, FilePath=C:\_dev\BlackHills\bin\Debug\netcoreapp3.1\NLog.config
2021-11-11 10:27:49.9686 Info Configuration initialized.
2021-11-11 10:27:49.9686 Info NLog, Version=4.0.0.0, Culture=neutral, PublicKeyToken=5120e14c03d0593c. File version: 4.7.11.13229. Product version: 4.7.11+33ed3a9f86277651e93ddf39cda64a046a06778b. GlobalAssemblyCache: False
2021-11-11 10:33:03.3495 Info Message Template Auto Format enabled
2021-11-11 10:33:03.3699 Info Loading assembly: NLog.Web.AspNetCore
2021-11-11 10:33:03.4030 Info Adding target FileTarget(Name=alldata)
2021-11-11 10:33:03.4282 Info Validating config: TargetNames=alldata, ConfigItems=16, FilePath=C:\_dev\BlackHills\bin\Debug\netcoreapp3.1\NLog.config
2021-11-11 10:33:03.4493 Info Configuration initialized.
2021-11-11 10:33:03.4493 Info NLog, Version=4.0.0.0, Culture=neutral, PublicKeyToken=5120e14c03d0593c. File version: 4.7.11.13229. Product version: 4.7.11+33ed3a9f86277651e93ddf39cda64a046a06778b. GlobalAssemblyCache: False
2021-11-18 16:23:35.8314 Info Message Template Auto Format enabled
2021-11-18 16:23:35.8503 Info Loading assembly: NLog.Web.AspNetCore
2021-11-18 16:23:35.8789 Info Adding target FileTarget(Name=alldata)
2021-11-18 16:23:35.9045 Info Validating config: TargetNames=alldata, ConfigItems=16, FilePath=C:\_dev\BlackHills\bin\Debug\netcoreapp3.1\NLog.config
2021-11-18 16:23:35.9177 Info Configuration initialized.
2021-11-18 16:23:35.9177 Info NLog, Version=4.0.0.0, Culture=neutral, PublicKeyToken=5120e14c03d0593c. File version: 4.7.11.13229. Product version: 4.7.11+33ed3a9f86277651e93ddf39cda64a046a06778b. GlobalAssemblyCache: False
2021-11-18 21:33:18.7283 Info Message Template Auto Format enabled
2021-11-18 21:33:18.7438 Info Loading assembly: NLog.Web.AspNetCore
2021-11-18 21:33:18.7651 Info Adding target FileTarget(Name=alldata)
2021-11-18 21:33:18.7848 Info Validating config: TargetNames=alldata, ConfigItems=16, FilePath=C:\_dev\BlackHills\bin\Debug\netcoreapp3.1\NLog.config
2021-11-18 21:33:18.7962 Info Configuration initialized.
2021-11-18 21:33:18.7962 Info NLog, Version=4.0.0.0, Culture=neutral, PublicKeyToken=5120e14c03d0593c. File version: 4.7.11.13229. Product version: 4.7.11+33ed3a9f86277651e93ddf39cda64a046a06778b. GlobalAssemblyCache: False
2021-11-18 21:37:03.0528 Info Message Template Auto Format enabled
2021-11-18 21:37:03.0694 Info Loading assembly: NLog.Web.AspNetCore
2021-11-18 21:37:03.0927 Info Adding target FileTarget(Name=alldata)
2021-11-18 21:37:03.1149 Info Validating config: TargetNames=alldata, ConfigItems=16, FilePath=C:\_dev\BlackHills\bin\Debug\netcoreapp3.1\NLog.config
2021-11-18 21:37:03.1269 Info Configuration initialized.
2021-11-18 21:37:03.1269 Info NLog, Version=4.0.0.0, Culture=neutral, PublicKeyToken=5120e14c03d0593c. File version: 4.7.11.13229. Product version: 4.7.11+33ed3a9f86277651e93ddf39cda64a046a06778b. GlobalAssemblyCache: False
2021-11-18 21:38:28.0232 Info Message Template Auto Format enabled
2021-11-18 21:38:28.0401 Info Loading assembly: NLog.Web.AspNetCore
2021-11-18 21:38:28.0671 Info Adding target FileTarget(Name=alldata)
2021-11-18 21:38:28.0882 Info Validating config: TargetNames=alldata, ConfigItems=16, FilePath=C:\_dev\BlackHills\bin\Debug\netcoreapp3.1\NLog.config
2021-11-18 21:38:28.1001 Info Configuration initialized.
2021-11-18 21:38:28.1001 Info NLog, Version=4.0.0.0, Culture=neutral, PublicKeyToken=5120e14c03d0593c. File version: 4.7.11.13229. Product version: 4.7.11+33ed3a9f86277651e93ddf39cda64a046a06778b. GlobalAssemblyCache: False
2021-11-18 21:38:51.2372 Info Message Template Auto Format enabled
2021-11-18 21:38:51.2595 Info Loading assembly: NLog.Web.AspNetCore
2021-11-18 21:38:51.2951 Info Adding target FileTarget(Name=alldata)
2021-11-18 21:38:51.3228 Info Validating config: TargetNames=alldata, ConfigItems=16, FilePath=C:\_dev\BlackHills\bin\Debug\netcoreapp3.1\NLog.config
2021-11-18 21:38:51.3341 Info Configuration initialized.
2021-11-18 21:38:51.3341 Info NLog, Version=4.0.0.0, Culture=neutral, PublicKeyToken=5120e14c03d0593c. File version: 4.7.11.13229. Product version: 4.7.11+33ed3a9f86277651e93ddf39cda64a046a06778b. GlobalAssemblyCache: False
2021-11-18 21:40:12.8487 Info Message Template Auto Format enabled
2021-11-18 21:40:12.8656 Info Loading assembly: NLog.Web.AspNetCore
2021-11-18 21:40:12.8892 Info Adding target FileTarget(Name=alldata)
2021-11-18 21:40:12.9114 Info Validating config: TargetNames=alldata, ConfigItems=16, FilePath=C:\_dev\BlackHills\bin\Debug\netcoreapp3.1\NLog.config
2021-11-18 21:40:12.9236 Info Configuration initialized.
2021-11-18 21:40:12.9236 Info NLog, Version=4.0.0.0, Culture=neutral, PublicKeyToken=5120e14c03d0593c. File version: 4.7.11.13229. Product version: 4.7.11+33ed3a9f86277651e93ddf39cda64a046a06778b. GlobalAssemblyCache: False
2021-11-18 21:43:02.0224 Info Message Template Auto Format enabled
2021-11-18 21:43:02.0389 Info Loading assembly: NLog.Web.AspNetCore
2021-11-18 21:43:02.0675 Info Adding target FileTarget(Name=alldata)
2021-11-18 21:43:02.0887 Info Validating config: TargetNames=alldata, ConfigItems=16, FilePath=C:\_dev\BlackHills\bin\Debug\netcoreapp3.1\NLog.config
2021-11-18 21:43:02.1032 Info Configuration initialized.
2021-11-18 21:43:02.1032 Info NLog, Version=4.0.0.0, Culture=neutral, PublicKeyToken=5120e14c03d0593c. File version: 4.7.11.13229. Product version: 4.7.11+33ed3a9f86277651e93ddf39cda64a046a06778b. GlobalAssemblyCache: False
2021-11-18 21:45:38.0237 Info Message Template Auto Format enabled
2021-11-18 21:45:38.0404 Info Loading assembly: NLog.Web.AspNetCore
2021-11-18 21:45:38.0639 Info Adding target FileTarget(Name=alldata)
2021-11-18 21:45:38.0954 Info Validating config: TargetNames=alldata, ConfigItems=16, FilePath=C:\_dev\BlackHills\bin\Debug\netcoreapp3.1\NLog.config
2021-11-18 21:45:38.1065 Info Configuration initialized.
2021-11-18 21:45:38.1065 Info NLog, Version=4.0.0.0, Culture=neutral, PublicKeyToken=5120e14c03d0593c. File version: 4.7.11.13229. Product version: 4.7.11+33ed3a9f86277651e93ddf39cda64a046a06778b. GlobalAssemblyCache: False
2021-11-18 21:48:22.8020 Info Message Template Auto Format enabled
2021-11-18 21:48:22.8214 Info Loading assembly: NLog.Web.AspNetCore
2021-11-18 21:48:22.8441 Info Adding target FileTarget(Name=alldata)
2021-11-18 21:48:22.8687 Info Validating config: TargetNames=alldata, ConfigItems=16, FilePath=C:\_dev\BlackHills\bin\Debug\netcoreapp3.1\NLog.config
2021-11-18 21:48:22.8809 Info Configuration initialized.
2021-11-18 21:48:22.8809 Info NLog, Version=4.0.0.0, Culture=neutral, PublicKeyToken=5120e14c03d0593c. File version: 4.7.11.13229. Product version: 4.7.11+33ed3a9f86277651e93ddf39cda64a046a06778b. GlobalAssemblyCache: False
2021-11-18 22:03:13.4791 Info Message Template Auto Format enabled
2021-11-18 22:03:13.4956 Info Loading assembly: NLog.Web.AspNetCore
2021-11-18 22:03:13.5232 Info Adding target FileTarget(Name=alldata)
2021-11-18 22:03:13.5491 Info Validating config: TargetNames=alldata, ConfigItems=16, FilePath=C:\_dev\BlackHills\bin\Debug\netcoreapp3.1\NLog.config
2021-11-18 22:03:13.5609 Info Configuration initialized.
2021-11-18 22:03:13.5609 Info NLog, Version=4.0.0.0, Culture=neutral, PublicKeyToken=5120e14c03d0593c. File version: 4.7.11.13229. Product version: 4.7.11+33ed3a9f86277651e93ddf39cda64a046a06778b. GlobalAssemblyCache: False
2021-11-18 22:05:22.8642 Info Message Template Auto Format enabled
2021-11-18 22:05:22.8857 Info Loading assembly: NLog.Web.AspNetCore
2021-11-18 22:05:22.9170 Info Adding target FileTarget(Name=alldata)
2021-11-18 22:05:22.9412 Info Validating config: TargetNames=alldata, ConfigItems=16, FilePath=C:\_dev\BlackHills\bin\Debug\netcoreapp3.1\NLog.config
2021-11-18 22:05:22.9588 Info Configuration initialized.
2021-11-18 22:05:22.9588 Info NLog, Version=4.0.0.0, Culture=neutral, PublicKeyToken=5120e14c03d0593c. File version: 4.7.11.13229. Product version: 4.7.11+33ed3a9f86277651e93ddf39cda64a046a06778b. GlobalAssemblyCache: False
2021-11-18 22:13:45.5604 Info Message Template Auto Format enabled
2021-11-18 22:13:45.5604 Info Loading assembly: NLog.Web.AspNetCore
2021-11-18 22:13:45.5948 Info Adding target FileTarget(Name=alldata)
2021-11-18 22:13:45.6142 Info Validating config: TargetNames=alldata, ConfigItems=16, FilePath=C:\_dev\BlackHills\bin\Debug\netcoreapp3.1\NLog.config
2021-11-18 22:13:45.6280 Info Configuration initialized.
2021-11-18 22:13:45.6280 Info NLog, Version=4.0.0.0, Culture=neutral, PublicKeyToken=5120e14c03d0593c. File version: 4.7.11.13229. Product version: 4.7.11+33ed3a9f86277651e93ddf39cda64a046a06778b. GlobalAssemblyCache: False
2021-11-18 22:18:50.4329 Info Message Template Auto Format enabled
2021-11-18 22:18:50.4762 Info Loading assembly: NLog.Web.AspNetCore
2021-11-18 22:18:50.5002 Info Adding target FileTarget(Name=alldata)
2021-11-18 22:18:50.5208 Info Validating config: TargetNames=alldata, ConfigItems=16, FilePath=C:\_dev\BlackHills\bin\Debug\netcoreapp3.1\NLog.config
2021-11-18 22:18:50.5361 Info Configuration initialized.
2021-11-18 22:18:50.5361 Info NLog, Version=4.0.0.0, Culture=neutral, PublicKeyToken=5120e14c03d0593c. File version: 4.7.11.13229. Product version: 4.7.11+33ed3a9f86277651e93ddf39cda64a046a06778b. GlobalAssemblyCache: False
2021-11-18 22:31:10.3833 Info Message Template Auto Format enabled
2021-11-18 22:31:10.4125 Info Loading assembly: NLog.Web.AspNetCore
2021-11-18 22:31:10.4470 Info Adding target FileTarget(Name=alldata)
2021-11-18 22:31:10.4754 Info Validating config: TargetNames=alldata, ConfigItems=16, FilePath=C:\_dev\BlackHills\bin\Debug\netcoreapp3.1\NLog.config
2021-11-18 22:31:10.4918 Info Configuration initialized.
2021-11-18 22:31:10.4918 Info NLog, Version=4.0.0.0, Culture=neutral, PublicKeyToken=5120e14c03d0593c. File version: 4.7.11.13229. Product version: 4.7.11+33ed3a9f86277651e93ddf39cda64a046a06778b. GlobalAssemblyCache: False
2021-11-18 22:37:33.6275 Info Message Template Auto Format enabled
2021-11-18 22:37:33.6424 Info Loading assembly: NLog.Web.AspNetCore
2021-11-18 22:37:33.6675 Info Adding target FileTarget(Name=alldata)
2021-11-18 22:37:33.6857 Info Validating config: TargetNames=alldata, ConfigItems=16, FilePath=C:\_dev\BlackHills\bin\Debug\netcoreapp3.1\NLog.config
2021-11-18 22:37:33.6857 Info Configuration initialized.
2021-11-18 22:37:33.6857 Info NLog, Version=4.0.0.0, Culture=neutral, PublicKeyToken=5120e14c03d0593c. File version: 4.7.11.13229. Product version: 4.7.11+33ed3a9f86277651e93ddf39cda64a046a06778b. GlobalAssemblyCache: False
2021-11-18 22:40:36.8829 Info Message Template Auto Format enabled
2021-11-18 22:40:36.9028 Info Loading assembly: NLog.Web.AspNetCore
2021-11-18 22:40:36.9268 Info Adding target FileTarget(Name=alldata)
2021-11-18 22:40:36.9514 Info Validating config: TargetNames=alldata, ConfigItems=16, FilePath=C:\_dev\BlackHills\bin\Debug\netcoreapp3.1\NLog.config
2021-11-18 22:40:36.9676 Info Configuration initialized.
2021-11-18 22:40:36.9676 Info NLog, Version=4.0.0.0, Culture=neutral, PublicKeyToken=5120e14c03d0593c. File version: 4.7.11.13229. Product version: 4.7.11+33ed3a9f86277651e93ddf39cda64a046a06778b. GlobalAssemblyCache: False
2021-11-19 09:38:14.5316 Info Message Template Auto Format enabled
2021-11-19 09:38:14.5522 Info Loading assembly: NLog.Web.AspNetCore
2021-11-19 09:38:14.5880 Info Adding target FileTarget(Name=alldata)
2021-11-19 09:38:14.6115 Info Validating config: TargetNames=alldata, ConfigItems=16, FilePath=C:\_dev\BlackHills\bin\Debug\netcoreapp3.1\NLog.config
2021-11-19 09:38:14.6254 Info Configuration initialized.
2021-11-19 09:38:14.6254 Info NLog, Version=4.0.0.0, Culture=neutral, PublicKeyToken=5120e14c03d0593c. File version: 4.7.11.13229. Product version: 4.7.11+33ed3a9f86277651e93ddf39cda64a046a06778b. GlobalAssemblyCache: False
2021-11-19 14:03:05.4434 Info Message Template Auto Format enabled
2021-11-19 14:03:05.4694 Info Loading assembly: NLog.Web.AspNetCore
2021-11-19 14:03:05.5054 Info Adding target FileTarget(Name=alldata)
2021-11-19 14:03:05.5344 Info Validating config: TargetNames=alldata, ConfigItems=16, FilePath=C:\_dev\BlackHills\bin\Debug\netcoreapp3.1\NLog.config
2021-11-19 14:03:05.5518 Info Configuration initialized.
2021-11-19 14:03:05.5518 Info NLog, Version=4.0.0.0, Culture=neutral, PublicKeyToken=5120e14c03d0593c. File version: 4.7.11.13229. Product version: 4.7.11+33ed3a9f86277651e93ddf39cda64a046a06778b. GlobalAssemblyCache: False
2021-11-19 14:03:24.0201 Info Message Template Auto Format enabled
2021-11-19 14:03:24.0426 Info Loading assembly: NLog.Web.AspNetCore
2021-11-19 14:03:24.0845 Info Adding target FileTarget(Name=alldata)
2021-11-19 14:03:24.1246 Info Validating config: TargetNames=alldata, ConfigItems=16, FilePath=C:\_dev\BlackHills\bin\Debug\netcoreapp3.1\NLog.config
2021-11-19 14:03:24.1476 Info Configuration initialized.
2021-11-19 14:03:24.1476 Info NLog, Version=4.0.0.0, Culture=neutral, PublicKeyToken=5120e14c03d0593c. File version: 4.7.11.13229. Product version: 4.7.11+33ed3a9f86277651e93ddf39cda64a046a06778b. GlobalAssemblyCache: False
2021-11-19 14:03:31.5357 Info Message Template Auto Format enabled
2021-11-19 14:03:31.5614 Info Loading assembly: NLog.Web.AspNetCore
2021-11-19 14:03:31.5983 Info Adding target FileTarget(Name=alldata)
2021-11-19 14:03:31.6265 Info Validating config: TargetNames=alldata, ConfigItems=16, FilePath=C:\_dev\BlackHills\bin\Debug\netcoreapp3.1\NLog.config
2021-11-19 14:03:31.6417 Info Configuration initialized.
2021-11-19 14:03:31.6417 Info NLog, Version=4.0.0.0, Culture=neutral, PublicKeyToken=5120e14c03d0593c. File version: 4.7.11.13229. Product version: 4.7.11+33ed3a9f86277651e93ddf39cda64a046a06778b. GlobalAssemblyCache: False
